<?xml version="1.0" encoding="UTF-8"?>
<svg width="84px" height="13px" viewBox="0 0 84 13" version="1.1" xmlns="http://www.w3.org/2000/svg" xmlns:xlink="http://www.w3.org/1999/xlink">
    <!-- Generator: Sketch 48.2 (47327) - http://www.bohemiancoding.com/sketch -->
    <title>NINPŌ DESIGN</title>
    <desc>Created with Sketch.</desc>
    <defs></defs>
    <g id="flip" stroke="none" stroke-width="1" fill="none" fill-rule="evenodd" transform="translate(-20.000000, -21.000000)">
        <path d="M22.4975819,23.1040462 L20,23.1040462 L20,33.8346821 L21.986029,33.8346821 L21.986029,26.3202312 L22.0161204,26.3202312 L24.6641591,33.8346821 L27.1316497,33.8346821 L27.1316497,23.1040462 L25.1456206,23.1040462 L25.1456206,30.4531792 L25.1155293,30.4531792 L22.4975819,23.1040462 Z M28.7415368,33.8346821 L30.9081139,33.8346821 L30.9081139,23.1040462 L28.7415368,23.1040462 L28.7415368,33.8346821 Z M35.015583,23.1040462 L32.5180011,23.1040462 L32.5180011,33.8346821 L34.5040301,33.8346821 L34.5040301,26.3202312 L34.5341214,26.3202312 L37.1821601,33.8346821 L39.6496507,33.8346821 L39.6496507,23.1040462 L37.6636217,23.1040462 L37.6636217,30.4531792 L37.6335304,30.4531792 L35.015583,23.1040462 Z M43.3207953,27.9583815 L44.2837184,27.9583815 C44.7150299,27.9583815 45.0635846,27.8281323 45.3293928,27.5676301 C45.595201,27.3071278 45.7281032,26.9013515 45.7281032,26.350289 C45.7281032,25.8092458 45.6127542,25.39846 45.3820527,25.1179191 C45.1513512,24.8373782 44.7651827,24.6971098 44.2235357,24.6971098 L43.3207953,24.6971098 L43.3207953,27.9583815 Z M41.1542182,23.1040462 L44.9457281,23.1040462 C45.4974056,23.1040462 45.9613092,23.1967235 46.337453,23.3820809 C46.7135967,23.5674383 47.0170148,23.8104031 47.2477163,24.1109827 C47.4784178,24.4115622 47.6439185,24.7547187 47.7442235,25.1404624 C47.8445285,25.5262062 47.8946803,25.9194585 47.8946803,26.3202312 C47.8946803,26.8712937 47.8119299,27.3522137 47.6464267,27.7630058 C47.4809234,28.1737978 47.2502254,28.5094399 46.9543256,28.7699422 C46.6584259,29.0304445 46.2998409,29.2258182 45.8785599,29.3560694 C45.4572789,29.4863205 44.9908677,29.5514451 44.4793122,29.5514451 L43.3207953,29.5514451 L43.3207953,33.8346821 L41.1542182,33.8346821 L41.1542182,23.1040462 Z M50.9038152,28.4693642 C50.9038152,29.1907551 50.9213683,29.8044291 50.956475,30.3104046 C50.9915818,30.8163802 51.0617942,31.2271661 51.1671145,31.5427746 C51.2724347,31.8583831 51.4228899,32.0888239 51.6184847,32.234104 C51.8140794,32.3793842 52.0723609,32.4520231 52.3933369,32.4520231 C52.7143129,32.4520231 52.9725944,32.3793842 53.1681891,32.234104 C53.3637839,32.0888239 53.5142391,31.8583831 53.6195594,31.5427746 C53.7248796,31.2271661 53.7950921,30.8163802 53.8301988,30.3104046 C53.8653056,29.8044291 53.8828587,29.1907551 53.8828587,28.4693642 C53.8828587,27.7479733 53.8653056,27.136804 53.8301988,26.6358382 C53.7950921,26.1348723 53.7248796,25.7240864 53.6195594,25.4034682 C53.5142391,25.08285 53.3637839,24.8499044 53.1681891,24.7046243 C52.9725944,24.5593442 52.7143129,24.4867052 52.3933369,24.4867052 C52.0723609,24.4867052 51.8140794,24.5593442 51.6184847,24.7046243 C51.4228899,24.8499044 51.2724347,25.08285 51.1671145,25.4034682 C51.0617942,25.7240864 50.9915818,26.1348723 50.956475,26.6358382 C50.9213683,27.136804 50.9038152,27.7479733 50.9038152,28.4693642 Z M48.737238,28.4693642 C48.737238,27.6577994 48.7748519,26.9088666 48.8500806,26.2225434 C48.9253093,25.5362201 49.0908101,24.947594 49.3465879,24.4566474 C49.6023656,23.9657008 49.9709809,23.5824677 50.4524449,23.3069364 C50.9339089,23.0314052 51.5808664,22.8936416 52.3933369,22.8936416 C53.2058074,22.8936416 53.8527649,23.0314052 54.3342289,23.3069364 C54.8156929,23.5824677 55.1843082,23.9657008 55.440086,24.4566474 C55.6958637,24.947594 55.8613645,25.5362201 55.9365932,26.2225434 C56.011822,26.9088666 56.0494358,27.6577994 56.0494358,28.4693642 C56.0494358,29.2909482 56.011822,30.0423858 55.9365932,30.7236994 C55.8613645,31.405013 55.6958637,31.9911343 55.440086,32.4820809 C55.1843082,32.9730275 54.8156929,33.3487463 54.3342289,33.6092486 C53.8527649,33.8697508 53.2058074,34 52.3933369,34 C51.5808664,34 50.9339089,33.8697508 50.4524449,33.6092486 C49.9709809,33.3487463 49.6023656,32.9730275 49.3465879,32.4820809 C49.0908101,31.9911343 48.9253093,31.405013 48.8500806,30.7236994 C48.7748519,30.0423858 48.737238,29.2909482 48.737238,28.4693642 Z M54.5749597,21 L50.1966685,21 L50.1966685,22.1421965 L54.5749597,22.1421965 L54.5749597,21 Z M63.2111768,32.2416185 L64.1740999,32.2416185 C64.5552589,32.2416185 64.8611846,32.1764939 65.0918861,32.0462428 C65.3225876,31.9159916 65.5056415,31.7005795 65.6410532,31.4 C65.7764649,31.0994205 65.8667381,30.7036633 65.9118753,30.2127168 C65.9570126,29.7217702 65.9795809,29.110601 65.9795809,28.3791908 C65.9795809,27.7680124 65.9595202,27.2319869 65.9193982,26.7710983 C65.8792762,26.3102096 65.7965258,25.9269765 65.6711445,25.6213873 C65.5457633,25.3157981 65.3602018,25.0853572 65.1144546,24.9300578 C64.8687074,24.7747584 64.5402134,24.6971098 64.1289629,24.6971098 L63.2111768,24.6971098 L63.2111768,32.2416185 Z M61.0445997,23.1040462 L64.5953788,23.1040462 C65.3476663,23.1040462 65.9545024,23.226781 66.4159054,23.4722543 C66.8773084,23.7177276 67.2358934,24.0683985 67.4916711,24.5242775 C67.7474489,24.9801564 67.9204724,25.5287058 68.0107469,26.1699422 C68.1010214,26.8111785 68.146158,27.527549 68.146158,28.3190751 C68.146158,29.260891 68.0884835,30.079958 67.9731327,30.7763006 C67.857782,31.4726432 67.6596826,32.0462405 67.3788286,32.4971098 C67.0979746,32.9479791 66.7218365,33.2836212 66.250403,33.5040462 C65.7789695,33.7244712 65.1821637,33.8346821 64.4599678,33.8346821 L61.0445997,33.8346821 L61.0445997,23.1040462 Z M75.5787211,23.1040462 L69.575497,23.1040462 L69.575497,33.8346821 L75.7291779,33.8346821 L75.7291779,32.0612717 L71.7420742,32.0612717 L71.7420742,29.1757225 L75.353036,29.1757225 L75.353036,27.4023121 L71.7420742,27.4023121 L71.7420742,24.8774566 L75.5787211,24.8774566 L75.5787211,23.1040462 Z M78.5577646,30.483237 L76.3911875,30.483237 L76.3911875,30.9190751 C76.3911875,31.9109876 76.6544842,32.6724444 77.1810854,33.2034682 C77.7076867,33.7344921 78.5828346,34 79.8065556,34 C80.9801241,34 81.8953935,33.7420064 82.5523912,33.2260116 C83.2093889,32.7100167 83.5378829,31.8859402 83.5378829,30.7537572 C83.5378829,30.4231197 83.5077918,30.1225447 83.4476088,29.8520231 C83.3874258,29.5815015 83.2795996,29.3335271 83.1241268,29.1080925 C82.9686541,28.8826578 82.7605243,28.6722553 82.4997313,28.4768786 C82.2389383,28.2815019 81.9029216,28.0936425 81.4916711,27.9132948 L79.8216013,27.1919075 C79.3601983,27.0015405 79.0592878,26.7936427 78.9188608,26.5682081 C78.7784338,26.3427734 78.7082214,26.0647415 78.7082214,25.734104 C78.7082214,25.573795 78.7257745,25.4184979 78.7608812,25.2682081 C78.795988,25.1179183 78.8611853,24.9851644 78.956475,24.8699422 C79.0517648,24.75472 79.1796517,24.6620427 79.3401397,24.5919075 C79.5006277,24.5217723 79.7012347,24.4867052 79.9419667,24.4867052 C80.3632477,24.4867052 80.6641582,24.6244688 80.8447071,24.9 C81.0252561,25.1755312 81.1155293,25.5687836 81.1155293,26.0797688 L83.1918323,26.0797688 L83.1918323,25.7791908 C83.1918323,25.2682055 83.109082,24.829867 82.9435787,24.4641618 C82.7780755,24.0984567 82.5473774,23.7978817 82.2514777,23.5624277 C81.955578,23.3269738 81.6045157,23.1566479 81.1982805,23.0514451 C80.7920453,22.9462422 80.3482023,22.8936416 79.8667383,22.8936416 C78.8335968,22.8936416 78.0211385,23.15414 77.4293391,23.6751445 C76.8375396,24.196149 76.5416443,24.9876633 76.5416443,26.049711 C76.5416443,26.490561 76.5968112,26.8788037 76.7071467,27.2144509 C76.8174822,27.550098 76.9905057,27.8456635 77.2262225,28.1011561 C77.4619392,28.3566487 77.7553269,28.5795752 78.1063944,28.7699422 C78.4574619,28.9603092 78.8737214,29.1356447 79.3551854,29.2959538 C79.7162834,29.4161856 80.0197014,29.5339108 80.2654487,29.6491329 C80.5111959,29.7643551 80.7092953,29.8920995 80.8597528,30.0323699 C81.0102103,30.1726404 81.1180366,30.3304423 81.1832348,30.5057803 C81.2484331,30.6811184 81.2810317,30.8890161 81.2810317,31.1294798 C81.2810317,31.5803491 81.1481296,31.9134864 80.8823213,32.1289017 C80.6165131,32.3443171 80.3181102,32.4520231 79.9871037,32.4520231 C79.7062497,32.4520231 79.4730441,32.4119465 79.2874798,32.3317919 C79.1019156,32.2516374 78.953968,32.1414265 78.8436325,32.0011561 C78.733297,31.8608856 78.6580693,31.688055 78.6179473,31.482659 C78.5778253,31.2772629 78.5577646,31.0493269 78.5577646,30.7988439 L78.5577646,30.483237 Z M84.7264911,33.8346821 L86.8930682,33.8346821 L86.8930682,23.1040462 L84.7264911,23.1040462 L84.7264911,33.8346821 Z M93.2724342,26.2901734 L95.3487372,26.2901734 C95.3487372,25.1980678 95.0879482,24.3589625 94.5663622,23.7728324 C94.0447762,23.1867023 93.1921965,22.8936416 92.0085975,22.8936416 C91.316493,22.8936416 90.739748,23.008862 90.278345,23.2393064 C89.816942,23.4697507 89.4458191,23.8129072 89.1649651,24.2687861 C88.8841111,24.7246651 88.6860117,25.2932529 88.5706609,25.9745665 C88.4553102,26.6558801 88.3976357,27.4473943 88.3976357,28.3491329 C88.3976357,29.2809295 88.4377571,30.0999965 88.5180011,30.8063584 C88.5982451,31.5127203 88.7562231,32.106356 88.9919398,32.5872832 C89.2276566,33.0682105 89.5536429,33.4238909 89.9699087,33.6543353 C90.3861744,33.8847796 90.9253057,34 91.5873186,34 C92.0988741,34 92.5377019,33.9123323 92.9038152,33.7369942 C93.2699284,33.5616562 93.5833768,33.2635859 93.8441698,32.8427746 L93.8742611,32.8427746 L93.8742611,33.8346821 L95.4691026,33.8346821 L95.4691026,28.0485549 L91.9634605,28.0485549 L91.9634605,29.6416185 L93.3927996,29.6416185 L93.3927996,30.7387283 C93.3927996,31.0292885 93.347663,31.2822725 93.2573885,31.4976879 C93.167114,31.7131032 93.0542726,31.8909434 92.9188608,32.0312139 C92.7834491,32.1714843 92.638009,32.2766856 92.4825363,32.3468208 C92.3270635,32.416956 92.184131,32.4520231 92.0537346,32.4520231 C91.7427891,32.4520231 91.4895227,32.3543362 91.293928,32.1589595 C91.0983333,31.9635828 90.947878,31.6830461 90.8425578,31.317341 C90.7372375,30.9516359 90.6645175,30.5082878 90.6243955,29.9872832 C90.5842735,29.4662787 90.5642128,28.885167 90.5642128,28.2439306 C90.5642128,26.901342 90.6795618,25.9395019 90.9102633,25.3583815 C91.1409648,24.7772611 91.5171029,24.4867052 92.0386889,24.4867052 C92.2593599,24.4867052 92.4474289,24.5443154 92.6029017,24.6595376 C92.7583744,24.7747597 92.8862614,24.9200377 92.9865664,25.0953757 C93.0868714,25.2707138 93.1595914,25.4635828 93.2047286,25.6739884 C93.2498659,25.8843941 93.2724342,26.0897871 93.2724342,26.2901734 Z M99.3659323,23.1040462 L96.8683503,23.1040462 L96.8683503,33.8346821 L98.8543794,33.8346821 L98.8543794,26.3202312 L98.8844707,26.3202312 L101.532509,33.8346821 L104,33.8346821 L104,23.1040462 L102.013971,23.1040462 L102.013971,30.4531792 L101.98388,30.4531792 L99.3659323,23.1040462 Z" id="NINPŌ-DESIGN" fill="#1A1A1A"></path>
    </g>
</svg>