<?xml version="1.0" encoding="UTF-8"?>
<svg width="94px" height="11px" viewBox="0 0 94 11" version="1.1" xmlns="http://www.w3.org/2000/svg" xmlns:xlink="http://www.w3.org/1999/xlink">
    <!-- Generator: Sketch 48.2 (47327) - http://www.bohemiancoding.com/sketch -->
    <title>the collective</title>
    <desc>Created with Sketch.</desc>
    <defs></defs>
    <g id="flip" stroke="none" stroke-width="1" fill="none" fill-rule="evenodd" transform="translate(-28.000000, -709.000000)">
        <g id="Group-6" transform="translate(28.000000, 708.000000)" fill="#1A1A1A">
            <g id="Group-10" transform="translate(47.500000, 6.500000) rotate(-270.000000) translate(-47.500000, -6.500000) translate(41.000000, -41.000000)">
                <path d="M-38.487884,45.673858 L-38.487884,45.421858 C-38.487884,44.821858 -38.511884,44.341858 -38.583884,43.777858 L-36.135884,43.777858 C-36.195884,44.269858 -36.231884,44.845858 -36.231884,45.421858 L-36.231884,45.673858 L-35.799884,45.673858 C-35.271884,45.673858 -34.995884,45.661858 -34.623884,45.613858 L-34.623884,47.605858 C-34.983884,47.557858 -35.295884,47.533858 -35.727884,47.533858 L-36.231884,47.533858 L-36.231884,50.605858 C-36.231884,50.941858 -36.171884,51.109858 -36.015884,51.217858 C-35.883884,51.301858 -35.691884,51.349858 -35.463884,51.349858 C-35.151884,51.349858 -34.923884,51.289858 -34.623884,51.133858 L-34.443884,52.957858 C-34.983884,53.125858 -35.451884,53.197858 -36.099884,53.197858 C-36.915884,53.197858 -37.479884,53.065858 -37.863884,52.777858 C-38.319884,52.429858 -38.487884,52.021858 -38.487884,51.205858 L-38.487884,47.533858 L-38.943884,47.533858 C-39.327884,47.533858 -39.639884,47.557858 -39.987884,47.605858 L-39.987884,45.601858 C-39.639884,45.649858 -39.339884,45.673858 -38.919884,45.673858 L-38.487884,45.673858 Z M-31.203884,52.993858 L-33.687884,52.993858 C-33.615884,52.429858 -33.591884,51.925858 -33.591884,51.181858 L-33.591884,44.821858 C-33.591884,43.993858 -33.615884,43.477858 -33.687884,43.009858 L-31.203884,43.009858 C-31.275884,43.537858 -31.299884,43.969858 -31.299884,44.821858 L-31.299884,46.093858 C-31.299884,46.189858 -31.311884,46.381858 -31.311884,46.489858 C-30.591884,45.793858 -29.835884,45.493858 -28.815884,45.493858 C-27.999884,45.493858 -27.351884,45.721858 -26.907884,46.165858 C-26.427884,46.645858 -26.223884,47.233858 -26.223884,48.181858 L-26.223884,51.193858 C-26.223884,51.889858 -26.187884,52.489858 -26.127884,52.993858 L-28.623884,52.993858 C-28.551884,52.417858 -28.527884,51.913858 -28.527884,51.181858 L-28.527884,48.721858 C-28.527884,48.241858 -28.575884,48.025858 -28.719884,47.821858 C-28.887884,47.605858 -29.151884,47.497858 -29.487884,47.497858 C-30.171884,47.497858 -30.819884,47.953858 -31.299884,48.745858 L-31.299884,51.181858 C-31.299884,51.865858 -31.275884,52.369858 -31.203884,52.993858 Z M-17.583884,50.005858 L-22.983884,50.005858 C-22.863884,50.977858 -22.299884,51.493858 -21.351884,51.493858 C-20.871884,51.493858 -20.451884,51.337858 -20.139884,51.049858 C-19.959884,50.881858 -19.875884,50.749858 -19.779884,50.437858 L-17.691884,51.025858 C-17.967884,51.649858 -18.147884,51.925858 -18.483884,52.261858 C-19.167884,52.933858 -20.127884,53.281858 -21.315884,53.281858 C-22.491884,53.281858 -23.415884,52.945858 -24.099884,52.261858 C-24.807884,51.541858 -25.191884,50.521858 -25.191884,49.333858 C-25.191884,46.957858 -23.667884,45.385858 -21.375884,45.385858 C-19.503884,45.385858 -18.195884,46.405858 -17.775884,48.193858 C-17.679884,48.577858 -17.631884,49.081858 -17.595884,49.765858 C-17.595884,49.813858 -17.595884,49.885858 -17.583884,50.005858 Z M-22.947884,48.349858 L-19.863884,48.349858 C-20.031884,47.581858 -20.547884,47.173858 -21.375884,47.173858 C-22.227884,47.173858 -22.743884,47.557858 -22.947884,48.349858 Z M-5.55988404,47.893858 L-7.71988404,48.337858 C-7.82788404,47.977858 -7.89988404,47.809858 -8.05588404,47.629858 C-8.29588404,47.353858 -8.63188404,47.209858 -9.06388404,47.209858 C-10.035884,47.209858 -10.611884,47.977858 -10.611884,49.297858 C-10.611884,50.593858 -9.99988404,51.433858 -9.03988404,51.433858 C-8.57188404,51.433858 -8.13988404,51.241858 -7.89988404,50.905858 C-7.79188404,50.749858 -7.73188404,50.629858 -7.68388404,50.353858 L-5.47588404,50.701858 C-5.60788404,51.217858 -5.75188404,51.541858 -5.97988404,51.889858 C-6.57988404,52.777858 -7.67188404,53.269858 -9.06388404,53.269858 C-10.215884,53.269858 -11.199884,52.909858 -11.859884,52.237858 C-12.555884,51.553858 -12.939884,50.497858 -12.939884,49.321858 C-12.939884,46.921858 -11.427884,45.385858 -9.08788404,45.385858 C-7.23988404,45.385858 -5.95588404,46.297858 -5.55988404,47.893858 Z M-0.903884035,53.269858 C-3.31588404,53.269858 -4.85188404,51.733858 -4.85188404,49.321858 C-4.85188404,46.921858 -3.31588404,45.397858 -0.891884035,45.397858 C1.53211596,45.397858 3.06811596,46.921858 3.06811596,49.297858 C3.06811596,51.685858 1.48411596,53.269858 -0.903884035,53.269858 Z M-0.879884035,47.197858 C-1.93588404,47.197858 -2.55988404,47.989858 -2.55988404,49.309858 C-2.55988404,50.641858 -1.93588404,51.445858 -0.891884035,51.445858 C0.152115965,51.445858 0.752115965,50.665858 0.752115965,49.333858 C0.752115965,47.989858 0.140115965,47.197858 -0.879884035,47.197858 Z M4.04011596,43.009858 L6.54811596,43.009858 C6.47611596,43.513858 6.45211596,44.005858 6.45211596,44.821858 L6.45211596,51.181858 C6.45211596,51.901858 6.47611596,52.357858 6.54811596,52.993858 L4.04011596,52.993858 C4.11211596,52.453858 4.13611596,52.045858 4.13611596,51.181858 L4.13611596,44.821858 C4.13611596,43.969858 4.11211596,43.465858 4.04011596,43.009858 Z M7.80811596,43.009858 L10.316116,43.009858 C10.244116,43.513858 10.220116,44.005858 10.220116,44.821858 L10.220116,51.181858 C10.220116,51.901858 10.244116,52.357858 10.316116,52.993858 L7.80811596,52.993858 C7.88011596,52.453858 7.90411596,52.045858 7.90411596,51.181858 L7.90411596,44.821858 C7.90411596,43.969858 7.88011596,43.465858 7.80811596,43.009858 Z M18.872116,50.005858 L13.472116,50.005858 C13.592116,50.977858 14.156116,51.493858 15.104116,51.493858 C15.584116,51.493858 16.004116,51.337858 16.316116,51.049858 C16.496116,50.881858 16.580116,50.749858 16.676116,50.437858 L18.764116,51.025858 C18.488116,51.649858 18.308116,51.925858 17.972116,52.261858 C17.288116,52.933858 16.328116,53.281858 15.140116,53.281858 C13.964116,53.281858 13.040116,52.945858 12.356116,52.261858 C11.648116,51.541858 11.264116,50.521858 11.264116,49.333858 C11.264116,46.957858 12.788116,45.385858 15.080116,45.385858 C16.952116,45.385858 18.260116,46.405858 18.680116,48.193858 C18.776116,48.577858 18.824116,49.081858 18.860116,49.765858 C18.860116,49.813858 18.860116,49.885858 18.872116,50.005858 Z M13.508116,48.349858 L16.592116,48.349858 C16.424116,47.581858 15.908116,47.173858 15.080116,47.173858 C14.228116,47.173858 13.712116,47.557858 13.508116,48.349858 Z M26.900116,47.893858 L24.740116,48.337858 C24.632116,47.977858 24.560116,47.809858 24.404116,47.629858 C24.164116,47.353858 23.828116,47.209858 23.396116,47.209858 C22.424116,47.209858 21.848116,47.977858 21.848116,49.297858 C21.848116,50.593858 22.460116,51.433858 23.420116,51.433858 C23.888116,51.433858 24.320116,51.241858 24.560116,50.905858 C24.668116,50.749858 24.728116,50.629858 24.776116,50.353858 L26.984116,50.701858 C26.852116,51.217858 26.708116,51.541858 26.480116,51.889858 C25.880116,52.777858 24.788116,53.269858 23.396116,53.269858 C22.244116,53.269858 21.260116,52.909858 20.600116,52.237858 C19.904116,51.553858 19.520116,50.497858 19.520116,49.321858 C19.520116,46.921858 21.032116,45.385858 23.372116,45.385858 C25.220116,45.385858 26.504116,46.297858 26.900116,47.893858 Z M28.868116,45.673858 L28.868116,45.421858 C28.868116,44.821858 28.844116,44.341858 28.772116,43.777858 L31.220116,43.777858 C31.160116,44.269858 31.124116,44.845858 31.124116,45.421858 L31.124116,45.673858 L31.556116,45.673858 C32.084116,45.673858 32.360116,45.661858 32.732116,45.613858 L32.732116,47.605858 C32.372116,47.557858 32.060116,47.533858 31.628116,47.533858 L31.124116,47.533858 L31.124116,50.605858 C31.124116,50.941858 31.184116,51.109858 31.340116,51.217858 C31.472116,51.301858 31.664116,51.349858 31.892116,51.349858 C32.204116,51.349858 32.432116,51.289858 32.732116,51.133858 L32.912116,52.957858 C32.372116,53.125858 31.904116,53.197858 31.256116,53.197858 C30.440116,53.197858 29.876116,53.065858 29.492116,52.777858 C29.036116,52.429858 28.868116,52.021858 28.868116,51.205858 L28.868116,47.533858 L28.412116,47.533858 C28.028116,47.533858 27.716116,47.557858 27.368116,47.605858 L27.368116,45.601858 C27.716116,45.649858 28.016116,45.673858 28.436116,45.673858 L28.868116,45.673858 Z M33.704116,43.009858 L36.140116,43.009858 L36.140116,44.809858 L33.704116,44.809858 L33.704116,43.009858 Z M33.668116,45.673858 L36.176116,45.673858 C36.104116,46.165858 36.080116,46.645858 36.080116,47.485858 L36.080116,51.181858 C36.080116,51.829858 36.116116,52.477858 36.176116,52.993858 L33.668116,52.993858 C33.740116,52.405858 33.764116,51.949858 33.764116,51.181858 L33.764116,47.485858 C33.764116,46.705858 33.740116,46.213858 33.668116,45.673858 Z M36.896116,45.673858 L39.560116,45.673858 C39.584116,45.961858 39.644116,46.213858 39.788116,46.705858 L40.904116,50.437858 C40.916116,50.461858 40.928116,50.509858 40.952116,50.569858 C40.988116,50.689858 40.988116,50.701858 41.048116,50.905858 C41.084116,50.797858 41.096116,50.737858 41.108116,50.689858 C41.120116,50.665858 41.132116,50.629858 41.144116,50.569858 C41.168116,50.509858 41.180116,50.461858 41.192116,50.425858 L42.308116,46.705858 C42.440116,46.261858 42.512116,45.937858 42.536116,45.673858 L45.200116,45.673858 C44.960116,46.213858 44.864116,46.441858 44.708116,46.837858 L42.692116,51.985858 C42.488116,52.501858 42.428116,52.693858 42.368116,52.993858 L39.740116,52.993858 C39.680116,52.693858 39.620116,52.501858 39.416116,51.985858 L37.400116,46.837858 C37.328116,46.669858 37.160116,46.285858 36.896116,45.673858 Z M53.204116,50.005858 L47.804116,50.005858 C47.924116,50.977858 48.488116,51.493858 49.436116,51.493858 C49.916116,51.493858 50.336116,51.337858 50.648116,51.049858 C50.828116,50.881858 50.912116,50.749858 51.008116,50.437858 L53.096116,51.025858 C52.820116,51.649858 52.640116,51.925858 52.304116,52.261858 C51.620116,52.933858 50.660116,53.281858 49.472116,53.281858 C48.296116,53.281858 47.372116,52.945858 46.688116,52.261858 C45.980116,51.541858 45.596116,50.521858 45.596116,49.333858 C45.596116,46.957858 47.120116,45.385858 49.412116,45.385858 C51.284116,45.385858 52.592116,46.405858 53.012116,48.193858 C53.108116,48.577858 53.156116,49.081858 53.192116,49.765858 C53.192116,49.813858 53.192116,49.885858 53.204116,50.005858 Z M47.840116,48.349858 L50.924116,48.349858 C50.756116,47.581858 50.240116,47.173858 49.412116,47.173858 C48.560116,47.173858 48.044116,47.557858 47.840116,48.349858 Z" id="the-collective" transform="translate(6.608116, 48.145858) rotate(-90.000000) translate(-6.608116, -48.145858) "></path>
            </g>
        </g>
    </g>
</svg>